{
	"description": "purge the poison",
	"lyrics": [{
			"wordclass": "verse1",
			"members": ["1. All my friends are witches\n and we live in Hollywood\n Mystical bitches making our own sisterhood\n While society is falling\n we are quietly reforming\n Protecting the planet\n healing our own damage"]
		},
		{
			"wordclass": "verse2",
			"members": ["2. Quarantined all alone\n Mother Nature's on the phone\n What have you been doing?\n Don 't forget I am your home\n Virus come, fires burn until human beings learn\n From every disaster, you are not my master "]
		},
		{
			"wordclass": "verse3",
			"members": ["3. Need to purge the poison\n show us our humanity\n All the bad and good\n racism and misogyny \nNothing 's hidden anymore\n capitalism made us poor\n God, forgive America for every single war "]
		},
		{
			"wordclass": "verse4",
			"members": ["                                             CHORUS:\n Need to purge the poison from my system Until human beings listen\n                           Tell me, Who do you think you are ?\n        It 's your own decision But your home is now your prison\n                 You forgot that, without me, you won 't go far..."]
		},
		{
			"wordclass": "verse5",
			"members": ["🪄Need to purge the poison from my system Until human beings listen\n                           Tell me who do you think you are ? 🪄"]
		},
		{
			"wordclass": "verse6",
			"members": ["4. 2007 when size zero was the rage\n⁣⁣⁣ Britney shaved her head and All we did was call her crazed⁣⁣⁣\n Harvey Weinstein 's gone to jail⁣⁣⁣\n Me Too went on to unveil⁣⁣⁣ Truth and all its glory⁣⁣⁣\n The ending of a story⁣⁣⁣⁣⁣⁣ "]

		},
		{
			"wordclass": "verse7",
			"members": ["5. It's a new world order⁣\n everything just falls away⁣\n Our life as we knew it now belongs to yesterday\n Inside all the love and hate we can now regenerate\n Stopped how we 'd been living every single day"]
		},
		{
			"wordclass": "verse8",
			"members": ["Need to purge the poison from my system\n Until human beings listen\n Tell me, Who do you think you are ?\nIt 's your own decision\n But your home is now your prison\n You forgot that, without me, you won 't go far"]
		},
		{
			"wordclass": "verse9",
			"members": ["Need to purge the poison from my system\n Until human beings listen\n Tell me, Who do you think you are ? "]

		},
		{
			"wordclass": "verse10",
			"members": ["6. I just want a world where I can see the feminine\n We only make up one - quarter of the government\n Like an angel gone to hell\n Cast the moon under our spell\n Owning female power, taking back what 's ours"]
		},
		{
			"wordclass": "verse11",
			"members": ["7. Earth is like a white rose\n Quiet cloud of petals fold\n A place so corrupt where\n Angel flesh and blood is sold\n The feminine is born as new\n Started with a diamond dew\n Solitude was coming, everybody knew "]
		},
		{
			"wordclass": "verse12",
			"members": ["Need to purge the poison from my system\n Until human beings listen\n Tell me, Who do you think you are?\n Its your own decision But your home is now your prison\n You forgot that, without me, you wont go far"]
		},
		{
			"wordclass": "verse13",
			"members": ["Need to purge the poison from my system\n Until human beings listen\n Tell me, Who do you think you are ?\n It 's your own decision But your home is now your prison\n You forgot that, without me, you won 't go far"]
		}
	]
}
